{
  "title": "OSR Pack - D&D BX",
  "description": "OSR basic pack",
  "version": "0.0.8",
  "packs": [
    {
      "name": "abilities",
      "label": "Abilities",
      "path": "packs/abilities.db",
      "type": "Item",
      "private": false,
      "system": "ose",
      "flags": {}
    },
    {
      "name": "skills",
      "label": "Skills",
      "path": "packs/skills.db",
      "type": "Item",
      "private": false,
      "system": "ose",
      "flags": {}
    },
    {
      "name": "advanced-fantasy-spells",
      "label": "Spells: Advanced Fantasy",
      "path": "packs/advanced-fantasy-spells.db",
      "type": "Item",
      "private": false,
      "system": "ose",
      "flags": {}
    },
    {
      "name": "monsters-advanced",
      "label": "Monsters: Advanced Fantasy",
      "path": "packs/advanced-monsters.db",
      "type": "Actor",
      "private": false,
      "system": "ose",
      "flags": {}
    },
    {
      "name": "classic-fantasy-monsters",
      "label": "Monsters: Classic Fantasy",
      "path": "packs/classic-fantasy-monsters.db",
      "type": "Actor",
      "private": false,
      "system": "ose",
      "flags": {}
    },
    {
      "name": "classes",
      "label": "Classes",
      "path": "packs/classes.db",
      "type": "JournalEntry",
      "private": false,
      "flags": {},
      "system": "ose"
    },
    {
      "name": "equipment-coins",
      "label": "Coins",
      "path": "packs/equipment-coins.db",
      "type": "Item",
      "private": false,
      "system": "ose",
      "flags": {}
    },
    {
      "name": "spells",
      "label": "Spells: Classic Fantasy",
      "path": "packs/spells.db",
      "type": "Item",
      "private": false,
      "system": "ose",
      "flags": {}
    },
    {
      "name": "treasures",
      "label": "Treasure Tables",
      "path": "packs/treasures.db",
      "type": "RollTable",
      "private": false,
      "flags": {},
      "system": "ose"
    },
    {
      "name": "items",
      "label": "Items: Armor, Gear, Weapon",
      "path": "packs/items.db",
      "type": "Item",
      "private": false,
      "system": "ose",
      "flags": {}
    },
    {
      "name": "others-items",
      "label": "Items: Others",
      "path": "packs/others-items.db",
      "type": "Item",
      "private": false,
      "system": "ose",
      "flags": {}
    },
    {
      "name": "magic-items",
      "label": "Items: Magic",
      "path": "packs/magic-items.db",
      "type": "Item",
      "private": false,
      "system": "ose",
      "flags": {}
    }
  ],
  "url": "https://gitlab.com/phillgamboa/osr-pack",
  "manifest": "https://gitlab.com/phillgamboa/osr-pack/raw/main/module.json",
  "download": "https://gitlab.com/phillgamboa/osr-pack/-/archive/main/osr-pack-main.zip",
  "id": "ose-additional-content",
  "authors": [
    {
      "name": "Phillipe Gambôa",
      "flags": {}
    }
  ],
  "relationships": {
    "systems": [
      {
        "id": "ose",
        "type": "system",
        "compatibility": {}
      }
    ]
  },
  "compatibility": {
    "minimum": "0.8.7",
    "verified": "0.8.7"
  }
}